^C:\USERS\KAGAE\SOURCE\REPOS\PRACTIC17.5\PRACTIC17.5\X64\DEBUG\PRACTIC17.5.OBJ
C:\USERS\KAGAE\SOURCE\REPOS\PRACTIC17.5\X64\DEBUG\PRACTIC17.5.EXE
C:\USERS\KAGAE\SOURCE\REPOS\PRACTIC17.5\X64\DEBUG\PRACTIC17.5.PDB
